epoch,accuracy,loss,val_accuracy,val_loss
0,0.5602536797523499,1.281484842300415,0.6171326041221619,1.1397920846939087
1,0.6172791123390198,1.1354681253433228,0.62894207239151,1.1058319807052612
2,0.6409183144569397,1.068577766418457,0.634623110294342,1.0957326889038086
3,0.6618636250495911,1.0103989839553833,0.6432565450668335,1.0821311473846436
4,0.6797371506690979,0.956782877445221,0.6481323838233948,1.084669828414917
5,0.6967657804489136,0.9069669246673584,0.6526951193809509,1.0960869789123535
6,0.7116073966026306,0.8622852563858032,0.6536345481872559,1.1085703372955322
7,0.7251865267753601,0.8186308145523071,0.6545292139053345,1.1340489387512207
8,0.7369166612625122,0.7830495834350586,0.6544844508171082,1.1565172672271729
